"Gravity between box and box2, box2 is stationary
","t","x","y","vx","vy","ax","ay",
0.000000,0.000000,0.000000,0.000000,0.000000,0.000000,0.000000,
0.100000,inf,inf,inf,inf,inf,inf,
0.200000,inf,inf,inf,inf,inf,inf,
0.300000,inf,inf,inf,inf,inf,inf,
0.400000,inf,inf,inf,inf,inf,inf,
0.500000,inf,inf,inf,inf,inf,inf,
0.600000,inf,inf,inf,inf,inf,inf,
0.700000,inf,inf,inf,inf,inf,inf,
0.800000,inf,inf,inf,inf,inf,inf,
0.900000,inf,inf,inf,inf,inf,inf,
1.000000,inf,inf,inf,inf,inf,inf,
1.100000,inf,inf,inf,inf,inf,inf,
1.200000,inf,inf,inf,inf,inf,inf,
1.300000,inf,inf,inf,inf,inf,inf,
1.400000,inf,inf,inf,inf,inf,inf,
1.500000,inf,inf,inf,inf,inf,inf,
1.600000,inf,inf,inf,inf,inf,inf,
1.700000,inf,inf,inf,inf,inf,inf,
1.800000,inf,inf,inf,inf,inf,inf,
1.900000,inf,inf,inf,inf,inf,inf,
2.000000,inf,inf,inf,inf,inf,inf,
2.100000,inf,inf,inf,inf,inf,inf,
2.200000,inf,inf,inf,inf,inf,inf,
2.300000,inf,inf,inf,inf,inf,inf,
2.400000,inf,inf,inf,inf,inf,inf,
2.500000,inf,inf,inf,inf,inf,inf,
2.600000,inf,inf,inf,inf,inf,inf,
2.700000,inf,inf,inf,inf,inf,inf,
2.800000,inf,inf,inf,inf,inf,inf,
2.900000,inf,inf,inf,inf,inf,inf,
3.000000,inf,inf,inf,inf,inf,inf,
3.100000,inf,inf,inf,inf,inf,inf,
3.200000,inf,inf,inf,inf,inf,inf,
3.300000,inf,inf,inf,inf,inf,inf,
3.400000,inf,inf,inf,inf,inf,inf,
3.500000,inf,inf,inf,inf,inf,inf,
3.600000,inf,inf,inf,inf,inf,inf,
3.700000,inf,inf,inf,inf,inf,inf,
3.800000,inf,inf,inf,inf,inf,inf,
3.900000,inf,inf,inf,inf,inf,inf,
4.000000,inf,inf,inf,inf,inf,inf,
4.100000,inf,inf,inf,inf,inf,inf,
4.200000,inf,inf,inf,inf,inf,inf,
4.300000,inf,inf,inf,inf,inf,inf,
4.400000,inf,inf,inf,inf,inf,inf,
4.500000,inf,inf,inf,inf,inf,inf,
4.600000,inf,inf,inf,inf,inf,inf,
4.700000,inf,inf,inf,inf,inf,inf,
4.800000,inf,inf,inf,inf,inf,inf,
4.900000,inf,inf,inf,inf,inf,inf,
5.000000,inf,inf,inf,inf,inf,inf,
5.100000,inf,inf,inf,inf,inf,inf,
5.200000,inf,inf,inf,inf,inf,inf,
5.300000,inf,inf,inf,inf,inf,inf,
5.400000,inf,inf,inf,inf,inf,inf,
5.500000,inf,inf,inf,inf,inf,inf,
5.600000,inf,inf,inf,inf,inf,inf,
5.700000,inf,inf,inf,inf,inf,inf,
5.800000,inf,inf,inf,inf,inf,inf,
5.900000,inf,inf,inf,inf,inf,inf,
6.000000,inf,inf,inf,inf,inf,inf,
6.100000,inf,inf,inf,inf,inf,inf,
6.200000,inf,inf,inf,inf,inf,inf,
6.300000,inf,inf,inf,inf,inf,inf,
6.400000,inf,inf,inf,inf,inf,inf,
6.500000,inf,inf,inf,inf,inf,inf,
6.600000,inf,inf,inf,inf,inf,inf,
6.700000,inf,inf,inf,inf,inf,inf,
6.800000,inf,inf,inf,inf,inf,inf,
6.900000,inf,inf,inf,inf,inf,inf,
7.000000,inf,inf,inf,inf,inf,inf,
7.100000,inf,inf,inf,inf,inf,inf,
7.200000,inf,inf,inf,inf,inf,inf,
7.300000,inf,inf,inf,inf,inf,inf,
7.400000,inf,inf,inf,inf,inf,inf,
7.500000,inf,inf,inf,inf,inf,inf,
7.600000,inf,inf,inf,inf,inf,inf,
7.700000,inf,inf,inf,inf,inf,inf,
7.800000,inf,inf,inf,inf,inf,inf,
7.900000,inf,inf,inf,inf,inf,inf,
8.000000,inf,inf,inf,inf,inf,inf,
8.100000,inf,inf,inf,inf,inf,inf,
8.200000,inf,inf,inf,inf,inf,inf,
8.300000,inf,inf,inf,inf,inf,inf,
8.400000,inf,inf,inf,inf,inf,inf,
8.500000,inf,inf,inf,inf,inf,inf,
8.600000,inf,inf,inf,inf,inf,inf,
8.700000,inf,inf,inf,inf,inf,inf,
8.800000,inf,inf,inf,inf,inf,inf,
8.900000,inf,inf,inf,inf,inf,inf,
9.000000,inf,inf,inf,inf,inf,inf,
9.100000,inf,inf,inf,inf,inf,inf,
9.200000,inf,inf,inf,inf,inf,inf,
9.300000,inf,inf,inf,inf,inf,inf,
9.400000,inf,inf,inf,inf,inf,inf,
9.500000,inf,inf,inf,inf,inf,inf,
9.600000,inf,inf,inf,inf,inf,inf,
9.700000,inf,inf,inf,inf,inf,inf,
9.800000,inf,inf,inf,inf,inf,inf,
9.900000,inf,inf,inf,inf,inf,inf,
10.000000,inf,inf,inf,inf,inf,inf,
